GAM y Splines del informe PISA 2006
…
Habiendo visto la composicin de los datos en el dataset, realizo varias modificaciones que considero adecuadas para posteriores anlisis. Entre ellos:

Omisin de valores NA.

Rescribir el nombre variables a un formato adecuado.

Elimino variable Country.

pisa <- na.omit(pisa_raw)
pisa %<>% clean_names()
pisa$country = NULL
pisa

## # A tibble: 52 x 10
##    overall issues explain evidence interest support income health   edu   hdi
##      <dbl>  <dbl>   <dbl>    <dbl>    <dbl>   <dbl>  <dbl>  <dbl> <dbl> <dbl>
##  1     391    395     386      385      567     506  0.678  0.868 0.786 0.773
##  2     527    535     520      531      465     487  0.826  0.965 0.978 0.92 
##  3     511    505     516      505      507     515  0.835  0.944 0.824 0.866
##  4     510    515     503      516      503     492  0.831  0.935 0.868 0.877
##  5     390    398     390      378      592     519  0.637  0.818 0.646 0.695
##  6     434    427     444      417      523     527  0.663  0.829 0.778 0.753
##  7     534    532     531      542      469     501  0.84   0.951 0.902 0.897
##  8     438    444     432      440      591     564  0.673  0.923 0.764 0.78 
##  9     542    528     549      542      536     529  0.853  0.966 0.763 0.857
## 10     388    402     379      383      644     546  0.616  0.829 0.624 0.683
## #  with 42 more rows
…
